{
  "data": [
    {
      "type": "Song",
      "id": "5001",
      "attributes": {
        "title": "Amazing Grace",
        "author": "John Newton",
        "ccli_number": 4755360,
        "copyright": "Public Domain",
        "themes": "grace, salvation, redemption",
        "notes": ""
      }
    },
    {
      "type": "Song",
      "id": "5002",
      "attributes": {
        "title": "Be Thou My Vision",
        "author": "Traditional Irish",
        "ccli_number": 30639,
        "copyright": "Public Domain",
        "themes": "devotion, surrender",
        "notes": ""
      }
    }
  ],
  "links": {
    "self": "https://api.planningcenteronline.com/services/v2/songs?per_page=25&offset=0",
    "next": "https://api.planningcenteronline.com/services/v2/songs?per_page=25&offset=25"
  },
  "meta": {
    "total_count": 349,
    "count": 2
  }
}
